My Expenses Data Exploration
…
Now lets combine month variable with category variable to explore the month wise category spends.

expenses_by_month_category <- expenses %>% 
  group_by(MONTH,CATEGORY) %>%
  summarize(total = sum(AMOUNT),
            n= n())
expenses_by_month_category

## # A tibble: 75 x 4
## # Groups:   MONTH [?]
##    MONTH      CATEGORY    total     n
##    <ord>        <fctr>    <dbl> <int>
##  1   Jan ACCOMMODATION  8000.00     1
##  2   Jan         BILLS 16353.97    11
##  3   Jan FOOD & DRINKS   660.00    13
##  4   Jan         OTHER   500.00     1
##  5   Jan      RECHARGE  2509.17     6
##  6   Jan      SHOPPING  4003.74     3
##  7   Jan      TRANSFER 16000.00     5
##  8   Jan        TRAVEL  7073.00     6
##  9   Jan       UNKNOWN  2140.00     6
## 10   Feb         BILLS  2854.82     3
## # ... with 65 more rows
…
